<svg xmlns="http://www.w3.org/2000/svg" viewBox="0 0 40 40" width="40" height="40">
	<style>
		tspan { white-space:pre }
		.shp0 { fill: #8f8e91 } 
		.shp1 { fill: none;stroke: #8f8e91;stroke-width: 2 } 
	</style>
	<g id="find us on copy">
		<path id="facebook copy" class="shp0" d="M-117.27 8.97C-117.27 10.26 -117.27 12.55 -117.27 12.55C-117.27 12.55 -119.93 12.29 -120.59 13.3C-120.96 13.85 -120.74 15.47 -120.77 16.63C-119.61 16.63 -118.41 16.63 -117.25 16.63C-117.55 17.99 -117.76 18.91 -117.98 20.08C-118.98 20.08 -120.79 20.08 -120.79 20.08L-120.79 31.2C-120.79 31.2 -124.11 31.2 -125.67 31.2C-125.67 27.77 -125.67 23.78 -125.67 20.13C-126.43 20.13 -126.99 20.13 -127.75 20.13C-127.75 18.85 -127.75 17.91 -127.75 16.63C-127.01 16.63 -126.43 16.63 -125.7 16.63C-125.59 14.07 -125.55 11.54 -124.27 10.25C-122.83 8.8 -121.46 8.97 -117.27 8.97Z" />
		<path id="twitter copy" class="shp0" d="M-70.96 10.94C-69.18 10.91 -68.24 11.55 -67.33 12.38C-66.56 12.31 -65.57 11.88 -64.98 11.59C-64.79 11.48 -64.6 11.38 -64.41 11.27C-64.74 12.18 -65.2 12.89 -65.9 13.43C-66.05 13.55 -66.21 13.71 -66.4 13.79C-66.4 13.79 -66.4 13.8 -66.4 13.8C-65.4 13.79 -64.58 13.34 -63.8 13.09C-63.8 13.1 -63.8 13.1 -63.8 13.11C-64.21 13.76 -64.77 14.42 -65.36 14.89C-65.6 15.08 -65.84 15.27 -66.08 15.46C-66.06 16.52 -66.09 17.53 -66.29 18.42C-67.44 23.57 -70.48 27.08 -75.29 28.58C-77.02 29.11 -79.81 29.34 -81.79 28.84C-82.78 28.6 -83.66 28.32 -84.5 27.96C-84.96 27.76 -85.39 27.54 -85.8 27.29C-85.93 27.21 -86.07 27.13 -86.2 27.04C-85.75 27.06 -85.23 27.18 -84.73 27.1C-84.28 27.03 -83.84 27.05 -83.42 26.95C-82.38 26.73 -81.46 26.43 -80.66 25.96C-80.28 25.73 -79.69 25.47 -79.42 25.14C-79.93 25.15 -80.4 25.03 -80.79 24.9C-82.27 24.37 -83.14 23.41 -83.7 21.96C-83.25 22.01 -81.95 22.13 -81.65 21.87C-82.22 21.84 -82.76 21.51 -83.15 21.27C-84.35 20.52 -85.32 19.26 -85.31 17.33C-85.16 17.41 -85 17.48 -84.84 17.55C-84.54 17.68 -84.24 17.75 -83.88 17.82C-83.73 17.85 -83.43 17.94 -83.25 17.88C-83.26 17.88 -83.27 17.88 -83.27 17.88C-83.51 17.61 -83.88 17.43 -84.11 17.14C-84.88 16.19 -85.6 14.72 -85.15 12.97C-85.03 12.53 -84.85 12.14 -84.65 11.78C-84.65 11.78 -84.64 11.78 -84.63 11.79C-84.54 11.97 -84.34 12.11 -84.22 12.27C-83.82 12.75 -83.34 13.19 -82.85 13.57C-81.17 14.89 -79.66 15.69 -77.23 16.29C-76.62 16.44 -75.9 16.56 -75.17 16.56C-75.37 15.96 -75.31 14.98 -75.15 14.4C-74.74 12.94 -73.85 11.88 -72.54 11.32C-72.23 11.18 -71.89 11.08 -71.52 11C-71.34 10.98 -71.15 10.96 -70.96 10.94Z" />
		<path id="google plus copy" class="shp0" d="M-20.3 15.46L-20.3 18.87L-21.7 18.87L-21.7 15.46L-25.2 15.46L-25.2 14.06L-21.7 14.06L-21.7 10.64L-20.3 10.64L-20.3 14.06L-16.8 14.06L-16.8 15.46L-20.3 15.46ZM-29.98 12C-28.74 12.69 -28.01 13.8 -28.01 15.26C-28.01 16.49 -28.77 17.45 -29.74 18.2C-30.7 18.94 -30.88 19.24 -30.88 19.86C-30.88 20.39 -29.86 21.3 -29.32 21.67C-27.76 22.75 -27.3 23.76 -27.3 25.44C-27.3 27.54 -29.32 29.88 -33.06 29.88C-36.34 29.88 -39.2 28.31 -39.2 26.21C-39.2 24.08 -36.59 22.03 -33.31 22.03C-32.95 22.03 -32.62 22.02 -32.28 22.02C-32.73 21.59 -33.09 21.05 -33.09 20.4C-33.09 20.02 -32.96 19.63 -32.79 19.3C-32.97 19.32 -33.15 19.29 -33.33 19.29C-36.03 19.29 -37.83 17.34 -37.83 15.01C-37.83 12.72 -35.34 10.62 -32.69 10.62C-31.22 10.62 -26.79 10.62 -26.79 10.62L-28.11 12L-29.98 12ZM-32.68 22.57C-34.95 22.55 -36.98 23.93 -36.98 25.59C-36.98 27.28 -35.34 28.52 -33.08 28.52C-29.89 28.52 -28.78 27.37 -28.78 25.68C-28.78 25.47 -28.8 25.27 -28.85 25.08C-29.1 24.12 -29.98 23.65 -31.21 22.8C-31.66 22.66 -32.15 22.58 -32.68 22.57ZM-30.13 15.29C-30.4 13.33 -31.91 11.75 -33.43 11.71C-34.95 11.66 -35.97 13.16 -35.71 15.13C-35.45 17.09 -34 18.72 -32.48 18.76C-30.96 18.81 -29.87 17.25 -30.13 15.29Z" />
		<path id="linkedin copy" class="shp0" d="M26.21 30.92L26.21 23.16C26.21 21.56 25.75 19.97 23.88 19.97C22 19.97 21.22 21.56 21.22 23.19L21.22 30.92L16.22 30.92L16.22 16.7L21.22 16.7L21.22 18.62C22.53 16.95 23.68 16.26 25.75 16.26C27.83 16.26 31.2 17.22 31.2 22.84L31.2 30.92L26.21 30.92ZM11.59 14.6C10.05 14.6 8.8 13.47 8.8 12.09C8.8 10.7 10.05 9.58 11.59 9.58C13.14 9.58 14.39 10.7 14.39 12.09C14.39 13.47 13.14 14.6 11.59 14.6ZM14.09 30.92L9.08 30.92L9.08 16.7L14.09 16.7L14.09 30.92Z" />
		<path id="fb rect copy" class="shp1" d="M-143 0L-103 0L-103 40L-143 40L-143 0Z" />
		<path id="google plus copy 2" class="shp1" d="M-48 0L-8 0L-8 40L-48 40L-48 0Z" />
		<path id="linkedin copy 2" class="shp1" d="M0 0L40 0L40 40L0 40L0 0Z" />
		<path id="twtr rect copy" class="shp1" d="M-95 0L-55 0L-55 40L-95 40L-95 0Z" />
		<path id="Find Us On copy" fill="#ffffff" d="M-133.46 -27.03L-133.46 -25.65L-138.83 -25.65L-138.83 -20L-140.51 -20L-140.51 -32.8L-132.59 -32.8L-132.59 -31.41L-138.83 -31.41L-138.83 -27.03L-133.46 -27.03ZM-129.05 -29.51L-129.05 -20L-130.68 -20L-130.68 -29.51L-129.05 -29.51ZM-130.81 -32.03Q-130.81 -32.43 -130.57 -32.7Q-130.33 -32.97 -129.85 -32.97Q-129.38 -32.97 -129.13 -32.7Q-128.89 -32.43 -128.89 -32.03Q-128.89 -31.64 -129.13 -31.37Q-129.38 -31.11 -129.85 -31.11Q-130.33 -31.11 -130.57 -31.37Q-130.81 -31.64 -130.81 -32.03ZM-126.45 -29.51L-124.91 -29.51L-124.86 -28.31Q-123.77 -29.69 -122.01 -29.69Q-119 -29.69 -118.97 -26.28L-118.97 -20L-120.6 -20L-120.6 -26.29Q-120.61 -27.32 -121.07 -27.81Q-121.53 -28.31 -122.51 -28.31Q-123.3 -28.31 -123.89 -27.88Q-124.49 -27.46 -124.83 -26.78L-124.83 -20L-126.45 -20L-126.45 -29.51ZM-116.92 -24.71L-116.92 -24.83Q-116.92 -27.02 -115.88 -28.35Q-114.84 -29.69 -113.16 -29.69Q-111.49 -29.69 -110.52 -28.54L-110.52 -33.5L-108.89 -33.5L-108.89 -20L-110.39 -20L-110.46 -21.02Q-111.44 -19.82 -113.18 -19.82Q-114.83 -19.82 -115.88 -21.18Q-116.92 -22.53 -116.92 -24.71ZM-115.29 -24.65Q-115.29 -23.03 -114.62 -22.12Q-113.95 -21.2 -112.78 -21.2Q-111.23 -21.2 -110.52 -22.59L-110.52 -26.96Q-111.25 -28.31 -112.76 -28.31Q-113.95 -28.31 -114.62 -27.38Q-115.29 -26.46 -115.29 -24.65ZM-94.35 -32.8L-92.65 -32.8L-92.65 -24.1Q-92.66 -22.29 -93.79 -21.13Q-94.92 -19.98 -96.85 -19.84L-97.3 -19.82Q-99.4 -19.82 -100.65 -20.96Q-101.9 -22.09 -101.91 -24.08L-101.91 -32.8L-100.24 -32.8L-100.24 -24.13Q-100.24 -22.74 -99.48 -21.97Q-98.71 -21.2 -97.3 -21.2Q-95.87 -21.2 -95.11 -21.97Q-94.35 -22.73 -94.35 -24.12L-94.35 -32.8ZM-84.7 -22.52Q-84.7 -23.18 -85.21 -23.54Q-85.7 -23.91 -86.94 -24.17Q-88.17 -24.44 -88.9 -24.81Q-89.62 -25.18 -89.97 -25.69Q-90.31 -26.2 -90.31 -26.9Q-90.31 -28.07 -89.33 -28.88Q-88.33 -29.69 -86.8 -29.69Q-85.18 -29.69 -84.18 -28.85Q-83.17 -28.02 -83.17 -26.71L-84.8 -26.71Q-84.8 -27.38 -85.37 -27.87Q-85.93 -28.35 -86.8 -28.35Q-87.68 -28.35 -88.18 -27.96Q-88.69 -27.58 -88.69 -26.95Q-88.69 -26.36 -88.22 -26.06Q-87.75 -25.77 -86.54 -25.49Q-85.32 -25.22 -84.56 -24.84Q-83.81 -24.46 -83.45 -23.93Q-83.08 -23.4 -83.08 -22.64Q-83.08 -21.36 -84.1 -20.59Q-85.12 -19.82 -86.74 -19.82Q-87.89 -19.82 -88.76 -20.23Q-89.64 -20.63 -90.14 -21.35Q-90.64 -22.08 -90.64 -22.93L-89.01 -22.93Q-88.97 -22.11 -88.36 -21.63Q-87.75 -21.15 -86.74 -21.15Q-85.82 -21.15 -85.27 -21.52Q-84.7 -21.9 -84.7 -22.52ZM-66.41 -26.79L-66.41 -25.99Q-66.41 -24.1 -67.04 -22.7Q-67.67 -21.3 -68.83 -20.56Q-69.99 -19.82 -71.54 -19.82Q-73.05 -19.82 -74.22 -20.56Q-75.39 -21.31 -76.04 -22.68Q-76.68 -24.06 -76.7 -25.87L-76.7 -26.79Q-76.7 -28.64 -76.06 -30.05Q-75.41 -31.47 -74.25 -32.22Q-73.07 -32.97 -71.56 -32.97Q-70.02 -32.97 -68.85 -32.23Q-67.67 -31.49 -67.04 -30.07Q-66.41 -28.67 -66.41 -26.79ZM-68.08 -25.86L-68.08 -26.81Q-68.08 -29.09 -69 -30.3Q-69.91 -31.52 -71.56 -31.52Q-73.16 -31.52 -74.08 -30.3Q-74.99 -29.09 -75.02 -26.93L-75.02 -25.99Q-75.02 -23.78 -74.1 -22.51Q-73.16 -21.26 -71.54 -21.26Q-69.9 -21.26 -69.01 -22.44Q-68.11 -23.64 -68.08 -25.86ZM-64.13 -29.51L-62.59 -29.51L-62.54 -28.31Q-61.45 -29.69 -59.69 -29.69Q-56.68 -29.69 -56.65 -26.28L-56.65 -20L-58.28 -20L-58.28 -26.29Q-58.28 -27.32 -58.75 -27.81Q-59.21 -28.31 -60.18 -28.31Q-60.97 -28.31 -61.57 -27.88Q-62.17 -27.46 -62.5 -26.78L-62.5 -20L-64.13 -20L-64.13 -29.51Z" />
	</g>
</svg>