<svg xmlns="http://www.w3.org/2000/svg" viewBox="0 0 22 22" width="22" height="22">
	<style>
		tspan { white-space:pre }
		.shp0 { fill: #8f8e91 } 
	</style>
	<path class="shp0" d="M17.21 21.92L17.21 14.16C17.21 12.56 16.75 10.97 14.88 10.97C13 10.97 12.22 12.56 12.22 14.19L12.22 21.92L7.22 21.92L7.22 7.7L12.22 7.7L12.22 9.62C13.53 7.95 14.68 7.26 16.75 7.26C18.83 7.26 22.2 8.22 22.2 13.84L22.2 21.92L17.21 21.92ZM2.59 5.6C1.05 5.6 -0.2 4.47 -0.2 3.09C-0.2 1.7 1.05 0.58 2.59 0.58C4.14 0.58 5.39 1.7 5.39 3.09C5.39 4.47 4.14 5.6 2.59 5.6ZM5.09 21.92L0.08 21.92L0.08 7.7L5.09 7.7L5.09 21.92Z" />
</svg>